<?xml version="1.0" standalone="no"?>
<!DOCTYPE svg PUBLIC "-//W3C//DTD SVG 1.1//EN" "http://www.w3.org/Graphics/SVG/1.1/DTD/svg11.dtd">
<svg xmlns="http://www.w3.org/2000/svg">
<metadata>Copyright (C) 2015 by original authors @ fontello.com</metadata>
<defs>
<font id="fontello" horiz-adv-x="1000" >
<font-face font-family="fontello" font-weight="400" font-stretch="normal" units-per-em="1000" ascent="850" descent="-150" />
<missing-glyph horiz-adv-x="1000" />
<glyph glyph-name="heart" unicode="&#xe800;" d="m500-79q-14 0-25 10l-348 336q-5 5-15 15t-31 36-38 55-30 67-13 77q0 123 71 192t196 70q34 0 70-12t67-33 54-38 42-38q20 20 42 38t54 38 67 33 70 12q125 0 196-70t71-192q0-123-128-251l-347-335q-10-10-25-10z" horiz-adv-x="1000" />
<glyph glyph-name="heart-empty" unicode="&#xe801;" d="m929 517q0 46-12 80t-31 55-46 33-52 18-55 4-62-14-62-36-48-40-34-34q-10-13-27-13t-27 13q-14 15-34 34t-48 40-62 36-62 14-55-4-52-18-46-33-31-55-12-80q0-93 105-198l324-312 324 312q105 105 105 198z m71 0q0-123-128-251l-347-335q-10-10-25-10t-25 10l-348 336q-5 5-15 15t-31 36-38 55-30 67-13 77q0 123 71 192t196 70q34 0 70-12t67-33 54-38 42-38q20 20 42 38t54 38 67 33 70 12q125 0 196-70t71-192z" horiz-adv-x="1000" />
<glyph glyph-name="star" unicode="&#xe802;" d="m929 489q0-12-15-27l-203-197 48-279q1-4 1-12 0-11-6-19t-17-9q-10 0-22 7l-251 132-250-132q-13-7-23-7-11 0-17 9t-6 19q0 4 1 12l48 279-203 197q-14 15-14 27 0 21 31 26l280 40 126 254q11 23 27 23t28-23l125-254 280-40q32-5 32-26z" horiz-adv-x="928.6" />
<glyph glyph-name="star-empty" unicode="&#xe803;" d="m634 290l171 165-235 35-106 213-105-213-236-35 171-165-41-235 211 111 211-111z m295 199q0-12-15-27l-203-197 48-279q1-4 1-12 0-28-23-28-10 0-22 7l-251 132-250-132q-13-7-23-7-11 0-17 9t-6 19q0 4 1 12l48 279-203 197q-14 15-14 27 0 21 31 26l280 40 126 254q11 23 27 23t28-23l125-254 280-40q32-5 32-26z" horiz-adv-x="928.6" />
<glyph glyph-name="comment" unicode="&#xe804;" d="m1000 350q0-97-67-179t-182-130-251-48q-39 0-81 4-110-97-257-135-27-8-63-12-10-1-17 5t-10 16v1q-2 2 0 6t1 6 2 5l4 5t4 5 4 5q4 5 17 19t20 22 17 22 18 28 15 33 15 42q-88 50-138 123t-51 157q0 73 40 139t106 114 160 76 194 28q136 0 251-48t182-130 67-179z" horiz-adv-x="1000" />
<glyph glyph-name="tag" unicode="&#xe805;" d="m250 600q0 30-21 51t-50 20-51-20-21-51 21-50 51-21 50 21 21 50z m595-321q0-30-20-51l-274-274q-22-21-51-21-30 0-50 21l-399 399q-21 21-36 57t-15 65v232q0 29 21 50t50 22h233q29 0 65-15t57-36l399-399q20-21 20-50z" horiz-adv-x="857.1" />
<glyph glyph-name="facebook-rect" unicode="&#xe806;" d="m183 850c-102 0-183-81-183-183l0-634c0-102 81-183 183-183l344 0 0 391-104 0 0 141 104 0 0 120c0 94 61 181 201 181 57 0 100-5 100-5l-4-132s-43 1-90 1c-50 0-58-24-58-62l0-103 152 0-6-141-146 0 0-391 141 0c102 0 183 81 183 183l0 634c0 102-81 183-183 183l-634 0z" horiz-adv-x="1000" />
<glyph glyph-name="thumbs-up" unicode="&#xe807;" d="m143 100q0 15-11 25t-25 11-25-11-11-25 11-25 25-11 25 11 11 25z m643 321q0 29-22 50t-50 22h-196q0 32 27 89t26 89q0 55-17 81t-72 27q-14-15-21-48t-17-70-33-61q-13-13-43-51-2-3-13-17t-18-22-19-24-22-25-22-19-22-16-20-5h-18v-357h18q7 0 18-1t18-4 21-6 20-7 20-7 16-5q118-41 191-41h67q107 0 107 93 0 15-2 31 16 9 26 30t10 41-10 38q29 28 29 67 0 13-5 31t-14 26q18 1 30 26t12 45z m71 1q0-50-27-91 5-18 5-38 0-43-21-81 1-12 1-24 0-56-33-99 0-78-48-123t-126-45h-72q-54 0-106 13t-121 36q-65 23-77 23h-161q-29 0-50 21t-21 50v357q0 30 21 51t50 21h153q20 13 77 86 32 42 60 72 13 14 19 47t17 71 35 60q22 21 50 21 47 0 84-18t57-57 20-104q0-51-27-107h98q58 0 101-42t42-100z" horiz-adv-x="857.1" />
<glyph glyph-name="thumbs-down" unicode="&#xe808;" d="m143 600q0 15-11 25t-25 11-25-11-11-25 11-25 25-11 25 11 11 25z m643-321q0 19-12 45t-30 26q8 10 14 27t5 30q0 39-29 67 10 18 10 38t-10 41-26 30q2 16 2 31 0 47-27 70t-76 23h-71q-73 0-191-41-3-1-16-6t-20-7-20-6-21-6-18-4-18-1h-18v-358h18q9 0 20-5t22-15 22-19 22-25 19-24 18-23 13-16q30-38 43-51 23-24 33-61t17-70 21-48q54 0 72 27t17 81q0 32-26 89t-27 89h196q28 0 50 22t22 49z m71-1q0-57-42-100t-101-42h-98q27-55 27-107 0-66-20-104-19-39-57-57t-84-18q-28 0-50 21-19 18-30 45t-14 51-10 47-17 36q-27 28-60 71-57 73-77 86h-153q-29 0-50 21t-21 51v357q0 29 21 50t50 21h161q12 0 77 22 72 25 125 37t111 13h63q78 0 126-45t48-120v-3q33-43 33-99 0-13-1-24 21-38 21-81 0-20-5-38 27-41 27-91z" horiz-adv-x="857.1" />
<glyph glyph-name="attention" unicode="&#xe809;" d="m571 83v106q0 8-5 13t-12 5h-108q-7 0-12-5t-5-13v-106q0-8 5-13t12-6h108q7 0 12 6t5 13z m-1 208l10 257q0 6-5 10-7 6-14 6h-122q-7 0-14-6-5-4-5-12l9-255q0-5 6-9t13-3h103q8 0 13 3t6 9z m-7 522l428-786q20-35-1-70-10-17-26-26t-35-10h-858q-18 0-35 10t-26 26q-21 35-1 70l429 786q9 17 26 27t36 10 36-10 27-27z" horiz-adv-x="1000" />
<glyph glyph-name="search" unicode="&#xe80a;" d="m643 386q0 103-74 176t-176 74-177-74-73-176 73-177 177-73 176 73 74 177z m286-465q0-29-22-50t-50-21q-30 0-50 21l-191 191q-100-69-223-69-80 0-153 31t-125 84-84 125-31 153 31 152 84 126 125 84 153 31 152-31 126-84 84-126 31-152q0-123-69-223l191-191q21-21 21-51z" horiz-adv-x="928.6" />
<glyph glyph-name="user" unicode="&#xe80b;" d="m786 66q0-67-41-106t-108-39h-488q-67 0-108 39t-41 106q0 30 2 58t8 61 15 60 24 55 34 45 48 30 62 11q5 0 24-12t41-27 60-27 75-12 74 12 61 27 41 27 24 12q34 0 62-11t48-30 34-45 24-55 15-60 8-61 2-58z m-179 498q0-88-63-151t-151-63-152 63-62 151 62 152 152 63 151-63 63-152z" horiz-adv-x="785.7" />
<glyph glyph-name="pin" unicode="&#xe80c;" d="m268 368v250q0 8-5 13t-13 5-13-5-5-13v-250q0-8 5-13t13-5 13 5 5 13z m375-197q0-14-11-25t-25-10h-239l-29-270q-1-7-6-11t-11-5h-1q-15 0-17 15l-43 271h-225q-15 0-25 10t-11 25q0 69 44 124t99 55v286q-29 0-50 21t-22 50 22 50 50 22h357q29 0 50-22t21-50-21-50-50-21v-286q55 0 99-55t44-124z" horiz-adv-x="642.9" />
<glyph glyph-name="bookmark" unicode="&#xe80d;" d="m650 779q12 0 24-5 19-8 29-23t11-35v-719q0-19-11-35t-29-23q-10-4-24-4-27 0-47 18l-246 236-246-236q-20-19-46-19-13 0-25 5-18 7-29 23t-11 35v719q0 19 11 35t29 23q12 5 25 5h585z" horiz-adv-x="714.3" />
<glyph glyph-name="flag" unicode="&#xe80e;" d="m179 707q0-40-36-61v-707q0-7-5-12t-13-6h-36q-7 0-12 6t-6 12v707q-35 21-35 61 0 30 21 51t50 21 51-21 21-51z m821-36v-425q0-14-7-22t-22-15q-120-65-206-65-34 0-69 12t-60 27-65 27-79 12q-107 0-259-81-10-5-19-5-14 0-25 10t-10 25v414q0 18 17 31 12 8 44 24 132 67 235 67 60 0 112-16t122-49q21-11 49-11 30 0 65 12t62 26 49 26 30 12q15 0 25-10t11-26z" horiz-adv-x="1000" />
<glyph glyph-name="location" unicode="&#xe80f;" d="m429 493q0 59-42 101t-101 42-101-42-42-101 42-101 101-42 101 42 42 101z m142 0q0-61-18-100l-203-432q-9-18-27-29t-37-11-38 11-26 29l-204 432q-18 39-18 100 0 118 84 202t202 84 202-84 83-202z" horiz-adv-x="571.4" />
<glyph glyph-name="direction" unicode="&#xe810;" d="m782 655l-357-714q-10-20-32-20-3 0-8 1-13 3-20 13t-8 22v322h-321q-13 0-22 7t-13 20 2 23 17 17l714 357q7 4 16 4 15 0 25-10 8-8 10-20t-3-22z" horiz-adv-x="785.7" />
<glyph glyph-name="cog" unicode="&#xe811;" d="m571 350q0 59-41 101t-101 42-101-42-42-101 42-101 101-42 101 42 41 101z m286 61v-124q0-7-4-13t-11-7l-104-16q-10-30-21-51 19-27 59-77 6-6 6-13t-5-13q-15-21-55-61t-53-39q-7 0-14 5l-77 60q-25-13-51-21-9-76-16-104-4-16-20-16h-124q-8 0-14 5t-6 12l-16 103q-27 9-50 21l-79-60q-6-5-14-5-8 0-14 6-70 64-92 94-4 5-4 13 0 6 5 12 8 12 28 37t30 40q-15 28-23 55l-102 15q-7 1-11 7t-5 13v124q0 7 5 13t10 7l104 16q8 25 22 51-23 32-60 77-6 7-6 14 0 5 5 12 15 20 55 60t53 40q7 0 15-5l77-60q24 13 50 21 9 76 17 104 3 15 20 15h124q7 0 13-4t7-12l15-103q28-9 50-21l80 60q5 5 13 5 7 0 14-5 72-67 92-95 4-5 4-13 0-6-4-12-9-12-29-38t-30-39q14-28 23-55l102-15q7-1 12-7t4-13z" horiz-adv-x="857.1" />
<glyph glyph-name="megaphone" unicode="&#xe812;" d="m929 493q29 0 50-21t21-51-21-50-50-21v-214q0-29-22-50t-50-22q-233 194-453 212-32-10-51-36t-17-57 22-51q-11-19-13-37t4-32 18-31 27-28 35-28q-17-32-63-46t-94-7-73 31q-4 13-17 49t-18 53-12 50-9 56 2 55 12 62h-68q-36 0-63 26t-26 63v107q0 37 26 63t63 26h268q243 0 500 215 29 0 50-22t22-50v-214z m-72-337v532q-220-168-428-191v-151q210-23 428-190z" horiz-adv-x="1000" />
<glyph glyph-name="facebook-squared" unicode="&#xe813;" d="m857 82q0-66-47-113t-114-48h-107v340h114l16 125h-130v80q0 30 16 46t53 16l74 1v115q-53 5-100 5-76 0-122-45t-46-126v-92h-125v-125h125v-340h-303q-67 0-114 48t-47 113v536q0 66 47 113t114 48h535q67 0 114-48t47-113v-536z" horiz-adv-x="857.1" />
<glyph glyph-name="gplus" unicode="&#xe814;" d="m410 406q0-20 18-40t43-37 51-41 43-59 18-79q0-50-27-96-40-68-118-101t-166-32q-74 0-138 24t-95 76q-21 34-21 73 0 46 25 84t66 64q73 46 225 56-18 24-26 41t-9 41q0 20 12 48-26-3-38-3-83 0-139 54t-57 137q0 45 20 88t55 73q43 37 102 55t122 18h233l-77-49h-73q41-35 62-74t21-90q0-40-13-72t-33-52-39-36-33-34-14-37z m-81 53q21 0 43 10t37 24q30 32 30 89 0 32-10 69t-27 73-47 57-65 23q-24 0-46-11t-37-29q-26-33-26-89 0-26 5-55t18-57 29-52 42-37 54-15z m1-487q32 0 62 7t55 22 41 41 15 61q0 14-4 27t-8 24-15 23-16 19-22 20-20 16-23 16-21 15q-8 1-26 1-30 0-59-4t-60-14-54-25-38-42-15-59q0-39 19-69t51-46 67-25 71-8z m452 489h119v-60h-119v-122h-59v122h-118v60h118v121h59v-121z" horiz-adv-x="928.6" />
<glyph glyph-name="qq" unicode="&#xe815;" d="m151 400q-5 11-5 29 0 11 6 28t14 25q-1 12 4 29t13 24q0 78 51 161t121 117q78 37 181 37 75 0 149-31 27-12 50-27t40-31 30-38 24-41 18-47 14-50 12-55l1-3q31-46 31-83 0-8-5-23t-5-21q0 0 0-2t2-3 1-2q43-63 68-119t24-117q0-24-11-55t-31-32q-5 0-11 4t-10 10-11 14-9 15-7 15-5 9q-1 1-2 1l-3-2q-33-86-74-125 12-11 35-21t38-23 20-37q-1-2-2-9t-4-10q-36-54-169-54-29 0-61 5t-55 11-58 17q-9 3-13 4-8 2-26 3t-22 0q-23-25-71-36t-94-11q-20 0-39 1t-52 5-56 11-42 23-18 35q0 23 6 33t23 28q6 1 22 7t28 6q2 0 8 2 1 1 1 2l-1 2q-27 6-60 58t-41 88l-3 1q-2 0-7-11-10-23-30-41t-43-21h-1q-2 0-3 2t-3 3q-13 30-13 56 0 154 141 260z" horiz-adv-x="1000" />
<glyph glyph-name="twitter" unicode="&#xe816;" d="m904 622q-37-54-90-93 0-8 0-23 0-73-21-145t-64-139-103-117-144-82-181-30q-151 0-276 81 19-3 43-3 126 0 224 77-59 2-105 36t-64 89q19-2 34-2 24 0 48 6-63 13-104 62t-41 115v2q38-21 82-23-37 25-59 64t-22 86q0 49 25 91 68-83 164-133t208-55q-5 21-5 41 0 75 53 127t127 53q79 0 132-57 61 12 114 44-20-64-79-100 52 6 104 28z" horiz-adv-x="928.6" />
<glyph glyph-name="weibo" unicode="&#xe817;" d="m377 134q11 18 6 38t-25 28q-19 8-41 0t-33-25q-13-19-8-38t24-29 42-1 35 27z m52 67q5 7 2 15t-10 10q-7 3-16 0t-12-10q-9-18 8-26 8-2 16 1t12 10z m97-60q-25-57-88-83t-125-7q-60 19-82 71t3 104q27 52 85 78t117 10q62-16 89-66t1-107z m174 90q-5 53-49 94t-117 61-153 12q-124-13-206-79t-74-148q5-53 50-94t116-61 153-12q125 13 206 79t74 148z m172-3q0-38-20-77t-61-77-94-65-126-47-151-17-154 19-134 51-96 85-36 111q0 64 39 137t110 144q94 94 191 131t137-3q36-36 11-117-2-8 0-11t5-4 8 0 8 2l3 1q78 33 138 33t85-34q25-35 0-99-1-8-3-11t3-7 7-5 9-3q32-10 58-26t44-46 19-65z m-41 349q23-27 30-61t-3-66q-5-12-17-19t-25-2q-12 5-19 17t-2 25q11 35-13 61t-60 20q-13-3-25 4t-14 21q-3 14 5 25t20 14q34 7 67-3t56-37z m101 91q48-54 63-125t-8-134q-5-16-19-23t-29-2-22 19-3 29q16 46 6 96t-45 88q-35 39-83 53t-96 5q-16-3-29 6t-17 24 5 29 25 16q68 14 136-6t116-75z" horiz-adv-x="1000" />
<glyph glyph-name="wechat" unicode="&#xe818;" d="m324 593q0 23-14 37t-37 14q-24 0-42-15t-19-36q0-22 19-36t42-14q23 0 37 13t14 37z m414-283q0 15-14 28t-36 12q-16 0-28-13t-13-27q0-16 13-28t28-13q22 0 36 12t14 29z m-131 283q0 23-14 37t-37 14q-24 0-42-15t-18-36q0-22 18-36t42-14q23 0 37 13t14 37z m354-283q0 15-15 28t-36 12q-15 0-27-13t-13-27q0-16 13-28t27-13q22 0 36 12t15 29z m-149 221q-17 3-39 3-94 0-173-43t-125-117-45-160q0-44 13-85-20-2-38-2-15 0-28 1t-31 4-25 4-30 6-28 5l-141-70 40 121q-162 114-162 274 0 94 54 173t148 125 203 45q98 0 185-36t146-102 76-146z m331-313q0-65-38-124t-104-108l31-101-111 60q-84-20-122-20-94 0-173 39t-125 107-46 147 46 148 125 106 173 40q90 0 169-40t127-107 48-147z" horiz-adv-x="1142.9" />
<glyph glyph-name="h-sigh" unicode="&#xe819;" d="m714 100v500q0 15-10 25t-25 11h-72q-14 0-25-11t-11-25v-179h-285v179q0 15-11 25t-25 11h-71q-15 0-25-11t-11-25v-500q0-14 11-25t25-11h71q15 0 25 11t11 25v179h285v-179q0-14 11-25t25-11h72q14 0 25 11t10 25z m143 518v-536q0-66-47-113t-114-48h-535q-67 0-114 48t-47 113v536q0 66 47 113t114 48h535q67 0 114-48t47-113z" horiz-adv-x="857.1" />
<glyph glyph-name="flight" unicode="&#xe81a;" d="m768 761q24-29 7-83t-61-96l-90-90 90-388q3-11-7-18l-71-54q-4-3-11-3-2 0-4 0-8 2-12 9l-155 284-145-145 30-108q3-10-5-18l-53-53q-5-5-13-5h-1q-9 1-14 7l-105 141-141 105q-6 4-7 13-1 7 5 14l54 54q5 5 12 5 4 0 5 0l108-30 145 145-284 155q-8 5-9 14-1 9 5 15l71 71q8 7 17 5l371-89 89 89q43 42 96 60t83-6z" horiz-adv-x="785.7" />
</font>
</defs>
</svg>